%!PS-Adobe-3.0 EPSF-3.0
%%CreationDate: Tue Oct 07 21:37:58 2014
%%LanguageLevel: 3
%%BoundingBox: 0 0 1024 1024
%%EndComments
newpath
815.17 636.01 moveto
835.38 646.26 855.55 656.62 875.79 666.83 curveto
877.50 665.42 878.91 663.53 880.96 662.59 curveto
884.68 662.64 888.45 662.92 892.14 662.12 curveto
902.80 660.14 912.69 652.49 915.71 641.83 curveto
916.85 638.25 916.74 634.43 916.45 630.72 curveto
924.69 623.37 932.92 616.01 941.22 608.72 curveto
922.66 597.37 904.06 586.08 885.37 574.95 curveto
862.05 595.39 838.52 615.60 815.17 636.01 curveto
851.63 626.81 moveto
854.34 616.62 861.71 607.82 871.23 603.30 curveto
880.55 598.72 891.84 598.44 901.39 602.50 curveto
907.24 604.97 911.29 610.28 914.36 615.64 curveto
915.65 618.40 917.77 621.45 916.33 624.57 curveto
912.65 619.69 908.96 614.58 903.64 611.35 curveto
895.38 605.90 884.44 605.74 875.47 609.46 curveto
865.02 613.96 857.57 623.86 854.61 634.68 curveto
853.15 639.50 853.14 644.57 852.57 649.53 curveto
850.09 642.26 849.51 634.25 851.63 626.81 curveto
629.86 648.19 moveto
630.92 648.49 632.41 649.59 633.36 648.46 curveto
642.20 640.24 650.97 631.95 659.80 623.71 curveto
591.18 592.35 522.41 561.36 453.79 530.02 curveto
444.88 539.47 436.11 549.05 427.36 558.65 curveto
494.88 588.45 562.36 618.33 629.86 648.19 curveto
736.90 596.07 moveto
758.10 607.10 779.47 617.83 800.79 628.62 curveto
803.43 626.15 806.11 623.73 808.80 621.30 curveto
818.18 622.81 828.25 620.75 835.77 614.78 curveto
843.79 608.63 847.96 597.86 845.63 587.93 curveto
853.78 580.50 861.96 573.09 870.17 565.72 curveto
849.71 553.18 829.09 540.92 808.64 528.37 curveto
784.68 550.89 760.67 573.36 736.90 596.07 curveto
775.16 596.10 moveto
774.24 587.48 776.49 578.56 781.43 571.43 curveto
788.15 561.49 799.98 555.24 811.99 555.42 curveto
826.32 555.38 840.83 564.50 845.57 578.26 curveto
845.23 578.64 844.53 579.40 844.18 579.78 curveto
841.91 577.05 840.04 573.99 837.49 571.51 curveto
831.67 565.50 823.47 561.57 815.00 561.96 curveto
802.80 561.60 791.39 568.96 785.14 579.16 curveto
779.46 588.05 777.65 598.83 778.31 609.23 curveto
777.26 604.85 775.56 600.62 775.16 596.10 curveto
465.79 516.99 moveto
533.54 549.49 601.30 581.98 669.08 614.40 curveto
669.84 614.18 lineto
679.22 605.67 688.34 596.88 697.60 588.22 curveto
629.10 554.95 560.59 521.70 492.06 488.48 curveto
483.28 497.96 474.47 507.42 465.79 516.99 curveto
503.19 476.37 moveto
571.43 510.49 639.77 544.41 708.03 578.48 curveto
729.96 557.89 751.95 537.37 773.84 516.73 curveto
706.83 478.14 639.82 439.55 572.79 401.00 curveto
549.57 426.10 526.40 451.26 503.19 476.37 curveto
633.40 525.51 moveto
598.37 507.58 563.09 490.12 528.16 471.99 curveto
530.55 471.84 533.12 471.54 535.29 472.83 curveto
593.57 502.02 651.91 531.10 710.18 560.32 curveto
724.79 546.23 739.14 531.87 753.66 517.70 curveto
754.41 518.59 755.53 519.31 755.79 520.51 curveto
740.60 535.14 725.44 549.82 710.22 564.42 curveto
684.63 551.43 659.01 538.47 633.40 525.51 curveto
715.80 533.68 moveto
715.23 528.88 715.59 523.53 712.64 519.41 curveto
708.25 516.15 702.23 515.66 698.24 511.75 curveto
695.01 509.10 690.81 508.03 687.43 505.58 curveto
682.53 501.84 676.35 499.14 670.09 499.79 curveto
666.68 500.84 666.89 505.05 665.74 507.77 curveto
662.47 505.27 663.80 500.96 664.59 497.58 curveto
667.68 493.21 672.45 489.46 677.94 489.05 curveto
683.70 489.61 688.70 492.92 693.99 495.04 curveto
698.89 496.81 702.84 500.39 707.67 502.33 curveto
711.74 503.88 715.17 506.74 718.14 509.86 curveto
721.23 515.82 719.39 522.50 718.61 528.75 curveto
718.25 530.67 717.36 532.47 715.80 533.68 curveto
632.92 487.42 moveto
632.70 484.11 633.21 480.70 632.34 477.45 curveto
631.82 475.09 629.18 474.60 627.39 473.53 curveto
624.95 472.46 623.59 469.88 621.08 468.93 curveto
615.90 466.68 610.63 464.39 606.56 460.36 curveto
599.67 458.06 594.66 452.40 587.76 450.17 curveto
585.55 449.35 583.17 447.35 580.77 448.72 curveto
577.30 450.49 576.98 454.77 576.48 458.16 curveto
575.43 457.99 574.38 457.81 573.34 457.63 curveto
571.62 451.39 573.14 443.54 578.73 439.72 curveto
585.11 435.63 593.62 437.39 599.62 441.36 curveto
604.24 444.65 609.76 446.35 614.34 449.71 curveto
617.67 452.24 621.86 453.27 625.16 455.84 curveto
627.39 457.23 628.88 459.53 631.13 460.85 curveto
636.86 463.35 637.31 470.63 637.23 476.05 curveto
636.74 480.07 636.77 485.01 632.92 487.42 curveto
274.46 457.92 moveto
299.84 471.03 325.20 484.18 350.63 497.20 curveto
363.34 482.38 376.32 467.80 389.08 453.01 curveto
406.04 461.44 422.96 469.96 439.92 478.40 curveto
457.65 457.92 475.42 437.48 493.12 416.97 curveto
476.51 407.64 459.82 398.45 443.22 389.11 curveto
456.56 373.28 469.91 357.46 483.29 341.68 curveto
456.61 326.26 429.83 311.01 403.03 295.78 curveto
389.94 312.67 376.83 329.55 363.79 346.47 curveto
345.15 336.50 326.62 326.31 308.05 316.21 curveto
290.61 339.98 272.97 363.62 255.71 387.52 curveto
273.67 396.56 291.71 405.44 309.64 414.55 curveto
297.91 429.01 286.16 443.44 274.46 457.92 curveto
296.71 465.71 moveto
296.67 459.93 297.05 454.14 297.45 448.37 curveto
306.04 437.61 315.48 427.50 324.41 416.99 curveto
327.41 419.14 330.38 421.34 333.40 423.46 curveto
321.20 437.56 309.27 451.93 296.71 465.71 curveto
418.65 403.88 moveto
422.12 400.28 425.71 396.79 429.21 393.22 curveto
441.08 400.25 453.06 407.12 464.80 414.34 curveto
465.98 419.44 465.00 425.08 465.24 430.37 curveto
449.61 421.73 434.18 412.70 418.65 403.88 curveto
276.52 392.48 moveto
275.77 386.17 275.87 379.69 276.32 373.37 curveto
287.55 359.42 299.11 345.72 310.41 331.81 curveto
329.05 341.49 347.55 351.46 366.15 361.23 curveto
379.39 344.94 392.29 328.37 405.60 312.13 curveto
422.75 322.51 439.89 332.91 457.11 343.17 curveto
457.11 348.91 457.16 354.65 457.07 360.38 curveto
440.94 350.35 424.88 340.22 408.78 330.14 curveto
394.85 346.50 380.98 362.92 367.00 379.23 curveto
349.23 369.22 331.52 359.10 313.80 348.98 curveto
301.26 363.38 289.30 378.30 276.52 392.48 curveto
closepath
1.000 1.000 1.000 setrgbcolor
fill
newpath
597.25 682.38 moveto
664.41 710.56 731.59 738.68 798.79 766.77 curveto
865.45 712.43 932.45 658.51 999.03 604.07 curveto
935.04 564.58 870.98 525.18 806.90 485.84 curveto
799.87 492.19 793.14 498.87 786.11 505.22 curveto
719.39 465.75 652.69 426.25 585.98 386.77 curveto
593.42 378.45 601.13 370.37 608.62 362.09 curveto
515.54 304.70 422.43 247.37 329.30 190.07 curveto
261.63 287.04 193.78 383.88 126.22 480.91 curveto
215.71 518.62 305.15 556.47 394.65 594.15 curveto
401.34 586.61 408.27 579.28 415.10 571.86 curveto
483.84 601.13 552.59 630.36 621.30 659.71 curveto
613.37 667.36 605.21 674.75 597.25 682.38 curveto
815.17 636.01 moveto
838.52 615.60 862.05 595.39 885.37 574.95 curveto
904.06 586.08 922.66 597.37 941.22 608.72 curveto
932.92 616.01 924.69 623.37 916.45 630.72 curveto
916.74 634.43 916.85 638.25 915.71 641.83 curveto
912.69 652.49 902.80 660.14 892.14 662.12 curveto
888.45 662.92 884.68 662.64 880.96 662.59 curveto
878.91 663.53 877.50 665.42 875.79 666.83 curveto
855.55 656.62 835.38 646.26 815.17 636.01 curveto
629.86 648.19 moveto
562.36 618.33 494.88 588.45 427.36 558.65 curveto
436.11 549.05 444.88 539.47 453.79 530.02 curveto
522.41 561.36 591.18 592.35 659.80 623.71 curveto
650.97 631.95 642.20 640.24 633.36 648.46 curveto
632.41 649.59 630.92 648.49 629.86 648.19 curveto
736.90 596.07 moveto
760.67 573.36 784.68 550.89 808.64 528.37 curveto
829.09 540.92 849.71 553.18 870.17 565.72 curveto
861.96 573.09 853.78 580.50 845.63 587.93 curveto
847.96 597.86 843.79 608.63 835.77 614.78 curveto
828.25 620.75 818.18 622.81 808.80 621.30 curveto
806.11 623.73 803.43 626.15 800.79 628.62 curveto
779.47 617.83 758.10 607.10 736.90 596.07 curveto
465.79 516.99 moveto
474.47 507.42 483.28 497.96 492.06 488.48 curveto
560.59 521.70 629.10 554.95 697.60 588.22 curveto
688.34 596.88 679.22 605.67 669.84 614.18 curveto
669.08 614.40 lineto
601.30 581.98 533.54 549.49 465.79 516.99 curveto
503.19 476.37 moveto
526.40 451.26 549.57 426.10 572.79 401.00 curveto
639.82 439.55 706.83 478.14 773.84 516.73 curveto
751.95 537.37 729.96 557.89 708.03 578.48 curveto
639.77 544.41 571.43 510.49 503.19 476.37 curveto
274.46 457.92 moveto
286.16 443.44 297.91 429.01 309.64 414.55 curveto
291.71 405.44 273.67 396.56 255.71 387.52 curveto
272.97 363.62 290.61 339.98 308.05 316.21 curveto
326.62 326.31 345.15 336.50 363.79 346.47 curveto
376.83 329.55 389.94 312.67 403.03 295.78 curveto
429.83 311.01 456.61 326.26 483.29 341.68 curveto
469.91 357.46 456.56 373.28 443.22 389.11 curveto
459.82 398.45 476.51 407.64 493.12 416.97 curveto
475.42 437.48 457.65 457.92 439.92 478.40 curveto
422.96 469.96 406.04 461.44 389.08 453.01 curveto
376.32 467.80 363.34 482.38 350.63 497.20 curveto
325.20 484.18 299.84 471.03 274.46 457.92 curveto
851.63 626.81 moveto
849.51 634.25 850.09 642.26 852.57 649.53 curveto
853.14 644.57 853.15 639.50 854.61 634.68 curveto
857.57 623.86 865.02 613.96 875.47 609.46 curveto
884.44 605.74 895.38 605.90 903.64 611.35 curveto
908.96 614.58 912.65 619.69 916.33 624.57 curveto
917.77 621.45 915.65 618.40 914.36 615.64 curveto
911.29 610.28 907.24 604.97 901.39 602.50 curveto
891.84 598.44 880.55 598.72 871.23 603.30 curveto
861.71 607.82 854.34 616.62 851.63 626.81 curveto
775.16 596.10 moveto
775.56 600.62 777.26 604.85 778.31 609.23 curveto
777.65 598.83 779.46 588.05 785.14 579.16 curveto
791.39 568.96 802.80 561.60 815.00 561.96 curveto
823.47 561.57 831.67 565.50 837.49 571.51 curveto
840.04 573.99 841.91 577.05 844.18 579.78 curveto
844.53 579.40 845.23 578.64 845.57 578.26 curveto
840.83 564.50 826.32 555.38 811.99 555.42 curveto
799.98 555.24 788.15 561.49 781.43 571.43 curveto
776.49 578.56 774.24 587.48 775.16 596.10 curveto
1002.15 586.91 moveto
1004.48 588.44 1006.84 589.95 1009.26 591.34 curveto
1007.02 562.98 1004.95 534.59 1002.66 506.23 curveto
773.83 354.98 545.05 203.66 316.20 52.45 curveto
240.05 162.89 163.94 273.35 87.79 383.79 curveto
86.25 386.46 83.38 388.74 83.49 392.06 curveto
82.47 433.14 81.28 474.22 80.28 515.30 curveto
162.24 394.90 244.10 274.43 326.05 154.02 curveto
551.42 298.30 776.77 442.62 1002.15 586.91 curveto
633.40 525.51 moveto
659.01 538.47 684.63 551.43 710.22 564.42 curveto
725.44 549.82 740.60 535.14 755.79 520.51 curveto
755.53 519.31 754.41 518.59 753.66 517.70 curveto
739.14 531.87 724.79 546.23 710.18 560.32 curveto
651.91 531.10 593.57 502.02 535.29 472.83 curveto
533.12 471.54 530.55 471.84 528.16 471.99 curveto
563.09 490.12 598.37 507.58 633.40 525.51 curveto
715.80 533.68 moveto
717.36 532.47 718.25 530.67 718.61 528.75 curveto
719.39 522.50 721.23 515.82 718.14 509.86 curveto
715.17 506.74 711.74 503.88 707.67 502.33 curveto
702.84 500.39 698.89 496.81 693.99 495.04 curveto
688.70 492.92 683.70 489.61 677.94 489.05 curveto
672.45 489.46 667.68 493.21 664.59 497.58 curveto
663.80 500.96 662.47 505.27 665.74 507.77 curveto
666.89 505.05 666.68 500.84 670.09 499.79 curveto
676.35 499.14 682.53 501.84 687.43 505.58 curveto
690.81 508.03 695.01 509.10 698.24 511.75 curveto
702.23 515.66 708.25 516.15 712.64 519.41 curveto
715.59 523.53 715.23 528.88 715.80 533.68 curveto
632.92 487.42 moveto
636.77 485.01 636.74 480.07 637.23 476.05 curveto
637.31 470.63 636.86 463.35 631.13 460.85 curveto
628.88 459.53 627.39 457.23 625.16 455.84 curveto
621.86 453.27 617.67 452.24 614.34 449.71 curveto
609.76 446.35 604.24 444.65 599.62 441.36 curveto
593.62 437.39 585.11 435.63 578.73 439.72 curveto
573.14 443.54 571.62 451.39 573.34 457.63 curveto
574.38 457.81 575.43 457.99 576.48 458.16 curveto
576.98 454.77 577.30 450.49 580.77 448.72 curveto
583.17 447.35 585.55 449.35 587.76 450.17 curveto
594.66 452.40 599.67 458.06 606.56 460.36 curveto
610.63 464.39 615.90 466.68 621.08 468.93 curveto
623.59 469.88 624.95 472.46 627.39 473.53 curveto
629.18 474.60 631.82 475.09 632.34 477.45 curveto
633.21 480.70 632.70 484.11 632.92 487.42 curveto
296.71 465.71 moveto
309.27 451.93 321.20 437.56 333.40 423.46 curveto
330.38 421.34 327.41 419.14 324.41 416.99 curveto
315.48 427.50 306.04 437.61 297.45 448.37 curveto
297.05 454.14 296.67 459.93 296.71 465.71 curveto
418.65 403.88 moveto
434.18 412.70 449.61 421.73 465.24 430.37 curveto
465.00 425.08 465.98 419.44 464.80 414.34 curveto
453.06 407.12 441.08 400.25 429.21 393.22 curveto
425.71 396.79 422.12 400.28 418.65 403.88 curveto
276.52 392.48 moveto
289.30 378.30 301.26 363.38 313.80 348.98 curveto
331.52 359.10 349.23 369.22 367.00 379.23 curveto
380.98 362.92 394.85 346.50 408.78 330.14 curveto
424.88 340.22 440.94 350.35 457.07 360.38 curveto
457.16 354.65 457.11 348.91 457.11 343.17 curveto
439.89 332.91 422.75 322.51 405.60 312.13 curveto
392.29 328.37 379.39 344.94 366.15 361.23 curveto
347.55 351.46 329.05 341.49 310.41 331.81 curveto
299.11 345.72 287.55 359.42 276.32 373.37 curveto
275.87 379.69 275.77 386.17 276.52 392.48 curveto
closepath
0.000 0.000 0.000 setrgbcolor
fill
%%EOF
